…
2. How many genera and species are represented in the data? What are the total number of observations? Which species is most/ least frequently sampled in the study?


```r
deserts %>% 
  count(species, sort =T)
```

```
## # A tibble: 40 x 2
##    species          n
##    <chr>        <int>
##  1 merriami     10596
##  2 penicillatus  3123
##  3 ordii         3027
##  4 baileyi       2891
##  5 megalotis     2609
##  6 spectabilis   2504
##  7 torridus      2249
##  8 flavus        1597
##  9 eremicus      1299
## 10 albigula      1252
## # … with 30 more rows
```

```r
deserts %>% 
  count(genus, sort = T)
```

```
## # A tibble: 26 x 2
##    genus                n
##    <chr>            <int>
##  1 Dipodomys        16167
##  2 Chaetodipus       6029
##  3 Onychomys         3267
##  4 Reithrodontomys   2694
##  5 Peromyscus        2234
##  6 Perognathus       1629
##  7 Neotoma           1252
##  8 Ammospermophilus   437
##  9 Amphispiza         303
## 10 Spermophilus       249
## # … with 16 more rows
```
…
7. [Dipodomys merriami](https://en.wikipedia.org/wiki/Merriam's_kangaroo_rat) is the most frequently sampled animal in the study. How have the number of observations of this species changed over the years included in the study?

```r
deserts %>% 
  group_by(year) %>% 
  count("merriami")
```

```
## # A tibble: 26 x 3
## # Groups:   year [26]
##     year `"merriami"`     n
##    <dbl> <chr>        <int>
##  1  1977 merriami       487
##  2  1978 merriami       992
##  3  1979 merriami       658
##  4  1980 merriami      1375
##  5  1981 merriami      1417
##  6  1982 merriami      1964
##  7  1983 merriami      1652
##  8  1984 merriami       951
##  9  1985 merriami      1416
## 10  1986 merriami       922
## # … with 16 more rows
```
…
```r
deserts %>% 
  group_by(species) %>% 
  filter(weight!= "NA") %>% 
  summarise(avg_weight=mean(weight)) %>% 
  arrange(desc(avg_weight))
```

```
## `summarise()` ungrouping output (override with `.groups` argument)
```

```
## # A tibble: 22 x 2
##    species      avg_weight
##    <chr>             <dbl>
##  1 albigula          159. 
##  2 spectabilis       120. 
##  3 spilosoma          93.5
##  4 hispidus           65.6
##  5 fulviventer        58.9
##  6 ochrognathus       55.4
##  7 ordii              48.9
##  8 merriami           43.2
##  9 baileyi            31.7
## 10 leucogaster        31.6
## # … with 12 more rows
```
…
