…
**4. Your answer above doesn't tell the whole story since life expectancy varies by region. Make a summary that shows the min, mean, and max life expectancy by continent for all years represented in the data.**

```r
gapminder %>% 
  group_by(continent, year) %>% 
  filter(between(year, 1952, 2007)) %>% 
  summarize(min=min(lifeExp), mean=mean(lifeExp), max=max(lifeExp))
```

```
## `summarise()` has grouped output by 'continent'. You can override using the `.groups` argument.
```

```
## # A tibble: 60 x 5
## # Groups:   continent [5]
##    continent  year   min  mean   max
##    <fct>     <int> <dbl> <dbl> <dbl>
##  1 Africa     1952  30    39.1  52.7
##  2 Africa     1957  31.6  41.3  58.1
##  3 Africa     1962  32.8  43.3  60.2
##  4 Africa     1967  34.1  45.3  61.6
##  5 Africa     1972  35.4  47.5  64.3
##  6 Africa     1977  36.8  49.6  67.1
##  7 Africa     1982  38.4  51.6  69.9
##  8 Africa     1987  39.9  53.3  71.9
##  9 Africa     1992  23.6  53.6  73.6
## 10 Africa     1997  36.1  53.6  74.8
## # ... with 50 more rows
```
…
**7. Which countries have had the largest population growth since 1952?**

```r
gapminder %>% 
  select(country, year, pop) %>% 
  filter(year==1952 | year==2007) %>% 
  pivot_wider(names_from = year, names_prefix = "year_", values_from = pop) %>% mutate(popgrowth=year_2007-year_1952) %>% arrange(desc(popgrowth))
```

```
## # A tibble: 142 x 4
##    country       year_1952  year_2007 popgrowth
##    <fct>             <int>      <int>     <int>
##  1 China         556263527 1318683096 762419569
##  2 India         372000000 1110396331 738396331
##  3 United States 157553000  301139947 143586947
##  4 Indonesia      82052000  223547000 141495000
##  5 Brazil         56602560  190010647 133408087
##  6 Pakistan       41346560  169270617 127924057
##  7 Bangladesh     46886859  150448339 103561480
##  8 Nigeria        33119096  135031164 101912068
##  9 Mexico         30144317  108700891  78556574
## 10 Philippines    22438691   91077287  68638596
## # ... with 132 more rows
```
…
```r
gapminder %>% 
  select(country, year, pop) %>% 
  filter(year==2007) %>% arrange(desc(pop))
```

```
## # A tibble: 142 x 3
##    country        year        pop
##    <fct>         <int>      <int>
##  1 China          2007 1318683096
##  2 India          2007 1110396331
##  3 United States  2007  301139947
##  4 Indonesia      2007  223547000
##  5 Brazil         2007  190010647
##  6 Pakistan       2007  169270617
##  7 Bangladesh     2007  150448339
##  8 Nigeria        2007  135031164
##  9 Japan          2007  127467972
## 10 Mexico         2007  108700891
## # ... with 132 more rows
```
…
