…
```r
sydneybeaches
```

```
## # A tibble: 3,690 x 8
##    BeachId Region    Council   Site   Longitude Latitude Date  `Enterococci (cf…
##      <dbl> <chr>     <chr>     <chr>      <dbl>    <dbl> <chr>             <dbl>
##  1      25 Sydney C… Randwick… Clove…      151.    -33.9 02/0…                19
##  2      25 Sydney C… Randwick… Clove…      151.    -33.9 06/0…                 3
##  3      25 Sydney C… Randwick… Clove…      151.    -33.9 12/0…                 2
##  4      25 Sydney C… Randwick… Clove…      151.    -33.9 18/0…                13
##  5      25 Sydney C… Randwick… Clove…      151.    -33.9 30/0…                 8
##  6      25 Sydney C… Randwick… Clove…      151.    -33.9 05/0…                 7
##  7      25 Sydney C… Randwick… Clove…      151.    -33.9 11/0…                11
##  8      25 Sydney C… Randwick… Clove…      151.    -33.9 23/0…                97
##  9      25 Sydney C… Randwick… Clove…      151.    -33.9 07/0…                 3
## 10      25 Sydney C… Randwick… Clove…      151.    -33.9 25/0…                 0
## # … with 3,680 more rows
```
…
```r
sydneybeaches
```

```
## # A tibble: 3,690 x 8
##    beach_id region    council   site   longitude latitude date  enterococci_cfu…
##       <dbl> <chr>     <chr>     <chr>      <dbl>    <dbl> <chr>            <dbl>
##  1       25 Sydney C… Randwick… Clove…      151.    -33.9 02/0…               19
##  2       25 Sydney C… Randwick… Clove…      151.    -33.9 06/0…                3
##  3       25 Sydney C… Randwick… Clove…      151.    -33.9 12/0…                2
##  4       25 Sydney C… Randwick… Clove…      151.    -33.9 18/0…               13
##  5       25 Sydney C… Randwick… Clove…      151.    -33.9 30/0…                8
##  6       25 Sydney C… Randwick… Clove…      151.    -33.9 05/0…                7
##  7       25 Sydney C… Randwick… Clove…      151.    -33.9 11/0…               11
##  8       25 Sydney C… Randwick… Clove…      151.    -33.9 23/0…               97
##  9       25 Sydney C… Randwick… Clove…      151.    -33.9 07/0…                3
## 10       25 Sydney C… Randwick… Clove…      151.    -33.9 25/0…                0
## # … with 3,680 more rows
```
…
4. Pivot the data such that the dates are column names and each beach only appears once. Name the object `sydneybeaches_wide`

```r
sydneybeaches_wide <- sydneybeaches_long %>% 
  pivot_wider(names_from = "site", values_from="enterococci_cfu_100ml")
sydneybeaches_wide
```

```
## # A tibble: 344 x 12
##    date  `Clovelly Beach` `Coogee Beach` `Gordons Bay (E… `Little Bay Bea…
##    <chr>            <dbl>          <dbl>            <dbl>            <dbl>
##  1 02/0…               19             15               NA                9
##  2 06/0…                3              4               NA                3
##  3 12/0…                2             17               NA               72
##  4 18/0…               13             18               NA                1
##  5 30/0…                8             22               NA               44
##  6 05/0…                7              2               NA                7
##  7 11/0…               11            110               NA              150
##  8 23/0…               97            630               NA              330
##  9 07/0…                3             11               NA               31
## 10 25/0…                0             82                4              420
## # … with 334 more rows, and 7 more variables: `Malabar Beach` <dbl>, `Maroubra
## #   Beach` <dbl>, `South Maroubra Beach` <dbl>, `South Maroubra
## #   Rockpool` <dbl>, `Bondi Beach` <dbl>, `Bronte Beach` <dbl>, `Tamarama
## #   Beach` <dbl>
```

5. Pivot the data back so that the dates are data and not column names.

```r
sydneybeaches_long2 <- sydneybeaches_wide %>% 
  pivot_longer(-date, names_to= "site", values_to="enterococci_cfu_100ml")
sydneybeaches_long2
```

```
## # A tibble: 3,784 x 3
##    date       site                    enterococci_cfu_100ml
##    <chr>      <chr>                                   <dbl>
##  1 02/01/2013 Clovelly Beach                             19
##  2 02/01/2013 Coogee Beach                               15
##  3 02/01/2013 Gordons Bay (East)                         NA
##  4 02/01/2013 Little Bay Beach                            9
##  5 02/01/2013 Malabar Beach                               2
##  6 02/01/2013 Maroubra Beach                              1
##  7 02/01/2013 South Maroubra Beach                        1
##  8 02/01/2013 South Maroubra Rockpool                    12
##  9 02/01/2013 Bondi Beach                                 3
## 10 02/01/2013 Bronte Beach                                4
## # … with 3,774 more rows
```

6. We haven't dealt much with dates yet, but separate the date into columns day, month, and year. Do this on the `sydneybeaches_long` data.


```r
sydneybeachesdates<- sydneybeaches_long %>% 
  separate(date, into =c("month", "day", "year"), sep ="/")
sydneybeachesdates
```

```
## # A tibble: 3,690 x 5
##    site           month day   year  enterococci_cfu_100ml
##    <chr>          <chr> <chr> <chr>                 <dbl>
##  1 Clovelly Beach 02    01    2013                     19
##  2 Clovelly Beach 06    01    2013                      3
##  3 Clovelly Beach 12    01    2013                      2
##  4 Clovelly Beach 18    01    2013                     13
##  5 Clovelly Beach 30    01    2013                      8
##  6 Clovelly Beach 05    02    2013                      7
##  7 Clovelly Beach 11    02    2013                     11
##  8 Clovelly Beach 23    02    2013                     97
##  9 Clovelly Beach 07    03    2013                      3
## 10 Clovelly Beach 25    03    2013                      0
## # … with 3,680 more rows
```
…
```
## `summarise()` regrouping output by 'site' (override with `.groups` argument)
```

```r
sydneybeach_ave_bac
```

```
## # A tibble: 66 x 3
## # Groups:   site [11]
##    site         year  avg_bacteria
##    <chr>        <chr>        <dbl>
##  1 Bondi Beach  2013          32.2
##  2 Bondi Beach  2014          11.1
##  3 Bondi Beach  2015          14.3
##  4 Bondi Beach  2016          19.4
##  5 Bondi Beach  2017          13.2
##  6 Bondi Beach  2018          22.9
##  7 Bronte Beach 2013          26.8
##  8 Bronte Beach 2014          17.5
##  9 Bronte Beach 2015          23.6
## 10 Bronte Beach 2016          61.3
## # … with 56 more rows
```
…
