…
## Data tidy
1. Some of the names used in the `superhero_info` data are problematic so you should rename them here.  

```r
superheroinfo <- rename(superhero_info, race="Race", gender="Gender", eye_color="Eye color", weight="Weight", hair_color="Hair color", height="Height", publisher="Publisher", skin_color= "Skin color", alignment= "Alignment")
superheroinfo
```

```
## # A tibble: 734 x 10
##    name  gender eye_color race  hair_color height publisher skin_color alignment
##    <chr> <chr>  <chr>     <chr> <chr>       <dbl> <chr>     <chr>      <chr>    
##  1 A-Bo~ Male   yellow    Human No Hair       203 Marvel C~ <NA>       good     
##  2 Abe ~ Male   blue      Icth~ No Hair       191 Dark Hor~ blue       good     
##  3 Abin~ Male   blue      Unga~ No Hair       185 DC Comics red        good     
##  4 Abom~ Male   green     Huma~ No Hair       203 Marvel C~ <NA>       bad      
##  5 Abra~ Male   blue      Cosm~ Black          NA Marvel C~ <NA>       bad      
##  6 Abso~ Male   blue      Human No Hair       193 Marvel C~ <NA>       bad      
##  7 Adam~ Male   blue      <NA>  Blond          NA NBC - He~ <NA>       good     
##  8 Adam~ Male   blue      Human Blond         185 DC Comics <NA>       good     
##  9 Agen~ Female blue      <NA>  Blond         173 Marvel C~ <NA>       good     
## 10 Agen~ Male   brown     Human Brown         178 Marvel C~ <NA>       good     
## # ... with 724 more rows, and 1 more variable: weight <dbl>
```
…
```
## The following objects are masked from 'package:stats':
## 
##     chisq.test, fisher.test
```

The `clean_names` function takes care of everything in one line! Now that's a superpower!

```r
superhero_powers2 <- janitor::clean_names(superhero_powers)
superhero_powers2
```

```
## # A tibble: 667 x 168
##    hero_names agility accelerated_hea~ lantern_power_r~ dimensional_awa~
##    <chr>      <lgl>   <lgl>            <lgl>            <lgl>           
##  1 3-D Man    TRUE    FALSE            FALSE            FALSE           
##  2 A-Bomb     FALSE   TRUE             FALSE            FALSE           
##  3 Abe Sapien TRUE    TRUE             FALSE            FALSE           
##  4 Abin Sur   FALSE   FALSE            TRUE             FALSE           
##  5 Abominati~ FALSE   TRUE             FALSE            FALSE           
##  6 Abraxas    FALSE   FALSE            FALSE            TRUE            
##  7 Absorbing~ FALSE   FALSE            FALSE            FALSE           
##  8 Adam Monr~ FALSE   TRUE             FALSE            FALSE           
##  9 Adam Stra~ FALSE   FALSE            FALSE            FALSE           
## 10 Agent Bob  FALSE   FALSE            FALSE            FALSE           
## # ... with 657 more rows, and 163 more variables: cold_resistance <lgl>,
## #   durability <lgl>, stealth <lgl>, energy_absorption <lgl>, flight <lgl>,
## #   danger_sense <lgl>, underwater_breathing <lgl>, marksmanship <lgl>,
## #   weapons_master <lgl>, power_augmentation <lgl>, animal_attributes <lgl>,
## #   longevity <lgl>, intelligence <lgl>, super_strength <lgl>,
## #   cryokinesis <lgl>, telepathy <lgl>, energy_armor <lgl>,
## #   energy_blasts <lgl>, duplication <lgl>, size_changing <lgl>,
## #   density_control <lgl>, stamina <lgl>, astral_travel <lgl>,
## #   audio_control <lgl>, dexterity <lgl>, omnitrix <lgl>, super_speed <lgl>,
…
2. Notice that we have some neutral superheros! Who are they?

```r
filter(superheroinfo, alignment=="neutral")
```

```
## # A tibble: 24 x 10
##    name  gender eye_color race  hair_color height publisher skin_color alignment
##    <chr> <chr>  <chr>     <chr> <chr>       <dbl> <chr>     <chr>      <chr>    
##  1 Biza~ Male   black     Biza~ Black         191 DC Comics white      neutral  
##  2 Blac~ Male   <NA>      God ~ <NA>           NA DC Comics <NA>       neutral  
##  3 Capt~ Male   brown     Human Brown          NA DC Comics <NA>       neutral  
##  4 Copy~ Female red       Muta~ White         183 Marvel C~ blue       neutral  
##  5 Dead~ Male   brown     Muta~ No Hair       188 Marvel C~ <NA>       neutral  
##  6 Deat~ Male   blue      Human White         193 DC Comics <NA>       neutral  
##  7 Etri~ Male   red       Demon No Hair       193 DC Comics yellow     neutral  
##  8 Gala~ Male   black     Cosm~ Black         876 Marvel C~ <NA>       neutral  
##  9 Glad~ Male   blue      Stro~ Blue          198 Marvel C~ purple     neutral  
## 10 Indi~ Female <NA>      Alien Purple         NA DC Comics <NA>       neutral  
## # ... with 14 more rows, and 1 more variable: weight <dbl>
```

## `superhero_info`
3. Let's say we are only interested in the variables name, alignment, and "race". How would you isolate these variables from `superhero_info`?

```r
select(superheroinfo, name, alignment, race)
```

```
## # A tibble: 734 x 3
##    name          alignment race             
##    <chr>         <chr>     <chr>            
##  1 A-Bomb        good      Human            
##  2 Abe Sapien    good      Icthyo Sapien    
##  3 Abin Sur      good      Ungaran          
##  4 Abomination   bad       Human / Radiation
##  5 Abraxas       bad       Cosmic Entity    
##  6 Absorbing Man bad       Human            
##  7 Adam Monroe   good      <NA>             
##  8 Adam Strange  good      Human            
##  9 Agent 13      good      <NA>             
## 10 Agent Bob     good      Human            
## # ... with 724 more rows
```

## Not Human
4. List all of the superheros that are not human.

```r
filter(superheroinfo, race !="Human")
```

```
## # A tibble: 222 x 10
##    name  gender eye_color race  hair_color height publisher skin_color alignment
##    <chr> <chr>  <chr>     <chr> <chr>       <dbl> <chr>     <chr>      <chr>    
##  1 Abe ~ Male   blue      Icth~ No Hair       191 Dark Hor~ blue       good     
##  2 Abin~ Male   blue      Unga~ No Hair       185 DC Comics red        good     
##  3 Abom~ Male   green     Huma~ No Hair       203 Marvel C~ <NA>       bad      
##  4 Abra~ Male   blue      Cosm~ Black          NA Marvel C~ <NA>       bad      
##  5 Ajax  Male   brown     Cybo~ Black         193 Marvel C~ <NA>       bad      
##  6 Alien Male   <NA>      Xeno~ No Hair       244 Dark Hor~ black      bad      
##  7 Amazo Male   red       Andr~ <NA>          257 DC Comics <NA>       bad      
##  8 Angel Male   <NA>      Vamp~ <NA>           NA Dark Hor~ <NA>       good     
##  9 Ange~ Female yellow    Muta~ Black         165 Marvel C~ <NA>       good     
## 10 Anti~ Male   yellow    God ~ No Hair        61 DC Comics <NA>       bad      
## # ... with 212 more rows, and 1 more variable: weight <dbl>
```

## Good and Evil
5. Let's make two different data frames, one focused on the "good guys" and another focused on the "bad guys".

```r
good_guys<- filter(superheroinfo, alignment == "good")
good_guys
```

```
## # A tibble: 496 x 10
##    name  gender eye_color race  hair_color height publisher skin_color alignment
##    <chr> <chr>  <chr>     <chr> <chr>       <dbl> <chr>     <chr>      <chr>    
##  1 A-Bo~ Male   yellow    Human No Hair       203 Marvel C~ <NA>       good     
##  2 Abe ~ Male   blue      Icth~ No Hair       191 Dark Hor~ blue       good     
##  3 Abin~ Male   blue      Unga~ No Hair       185 DC Comics red        good     
##  4 Adam~ Male   blue      <NA>  Blond          NA NBC - He~ <NA>       good     
##  5 Adam~ Male   blue      Human Blond         185 DC Comics <NA>       good     
##  6 Agen~ Female blue      <NA>  Blond         173 Marvel C~ <NA>       good     
##  7 Agen~ Male   brown     Human Brown         178 Marvel C~ <NA>       good     
##  8 Agen~ Male   <NA>      <NA>  <NA>          191 Marvel C~ <NA>       good     
##  9 Alan~ Male   blue      <NA>  Blond         180 DC Comics <NA>       good     
## 10 Alex~ Male   <NA>      <NA>  <NA>           NA NBC - He~ <NA>       good     
## # ... with 486 more rows, and 1 more variable: weight <dbl>
```

```r
bad_guys<- filter(superheroinfo, alignment == "bad")
bad_guys
```

```
## # A tibble: 207 x 10
##    name  gender eye_color race  hair_color height publisher skin_color alignment
##    <chr> <chr>  <chr>     <chr> <chr>       <dbl> <chr>     <chr>      <chr>    
##  1 Abom~ Male   green     Huma~ No Hair       203 Marvel C~ <NA>       bad      
##  2 Abra~ Male   blue      Cosm~ Black          NA Marvel C~ <NA>       bad      
##  3 Abso~ Male   blue      Human No Hair       193 Marvel C~ <NA>       bad      
##  4 Air-~ Male   blue      <NA>  White         188 Marvel C~ <NA>       bad      
##  5 Ajax  Male   brown     Cybo~ Black         193 Marvel C~ <NA>       bad      
##  6 Alex~ Male   <NA>      Human <NA>           NA Wildstorm <NA>       bad      
##  7 Alien Male   <NA>      Xeno~ No Hair       244 Dark Hor~ black      bad      
##  8 Amazo Male   red       Andr~ <NA>          257 DC Comics <NA>       bad      
##  9 Ammo  Male   brown     Human Black         188 Marvel C~ <NA>       bad      
## 10 Ange~ Female <NA>      <NA>  <NA>           NA Image Co~ <NA>       bad      
## # ... with 197 more rows, and 1 more variable: weight <dbl>
```
…
9. OK, so are there more good guys or bad guys that are bald (personal interest)? There are more good bald guys. 

```r
good_guys %>% select(name, hair_color) %>% 
filter(hair_color== "No Hair") 
```

```
## # A tibble: 37 x 2
##    name            hair_color
##    <chr>           <chr>     
##  1 A-Bomb          No Hair   
##  2 Abe Sapien      No Hair   
##  3 Abin Sur        No Hair   
##  4 Beta Ray Bill   No Hair   
##  5 Bishop          No Hair   
##  6 Black Lightning No Hair   
##  7 Blaquesmith     No Hair   
##  8 Bloodhawk       No Hair   
##  9 Crimson Dynamo  No Hair   
## 10 Donatello       No Hair   
## # ... with 27 more rows
```

```r
bad_guys %>% 
  select(name, hair_color) %>% 
filter(hair_color== "No Hair") 
```

```
## # A tibble: 35 x 2
##    name          hair_color
##    <chr>         <chr>     
##  1 Abomination   No Hair   
##  2 Absorbing Man No Hair   
##  3 Alien         No Hair   
##  4 Annihilus     No Hair   
##  5 Anti-Monitor  No Hair   
##  6 Black Manta   No Hair   
##  7 Bloodwraith   No Hair   
##  8 Brainiac      No Hair   
##  9 Darkseid      No Hair   
## 10 Darth Vader   No Hair   
## # ... with 25 more rows
```
…
<style>
div.blue { background-color:#e6f0ff; border-radius: 5px; padding: 20px;}
</style>
<div class = "blue">

## Height to Weight Ratio
13. It's easy to be strong when you are heavy and tall, but who is heavy and short? Which superheros have the highest height to weight ratio?

```r
superheroinfo %>% arrange(desc(height)) %>% arrange(., weight)
```

```
## # A tibble: 734 x 10
##    name  gender eye_color race  hair_color height publisher skin_color alignment
##    <chr> <chr>  <chr>     <chr> <chr>       <dbl> <chr>     <chr>      <chr>    
##  1 Iron~ Male   blue      <NA>  No Hair        NA Marvel C~ <NA>       bad      
##  2 Groot Male   yellow    Flor~ <NA>          701 Marvel C~ <NA>       good     
##  3 Jack~ Male   blue      Human Brown          71 Dark Hor~ <NA>       good     
##  4 Gala~ Male   black     Cosm~ Black         876 Marvel C~ <NA>       neutral  
##  5 Yoda  Male   brown     Yoda~ White          66 George L~ green      good     
##  6 Fin ~ Male   red       Kaka~ No Hair       975 Marvel C~ green      good     
##  7 Howa~ Male   brown     <NA>  Yellow         79 Marvel C~ <NA>       good     
##  8 Kryp~ Male   blue      Kryp~ White          64 DC Comics <NA>       good     
##  9 Rock~ Male   brown     Anim~ Brown         122 Marvel C~ <NA>       good     
## 10 Dash  Male   blue      Human Blond         122 Dark Hor~ <NA>       good     
## # ... with 724 more rows, and 1 more variable: weight <dbl>
```
</div>

## `superhero_powers`
Have a quick look at the `superhero_powers` data frame.  

```r
superhero_powers2
```

```
## # A tibble: 667 x 168
##    hero_names agility accelerated_hea~ lantern_power_r~ dimensional_awa~
##    <chr>      <lgl>   <lgl>            <lgl>            <lgl>           
##  1 3-D Man    TRUE    FALSE            FALSE            FALSE           
##  2 A-Bomb     FALSE   TRUE             FALSE            FALSE           
##  3 Abe Sapien TRUE    TRUE             FALSE            FALSE           
##  4 Abin Sur   FALSE   FALSE            TRUE             FALSE           
##  5 Abominati~ FALSE   TRUE             FALSE            FALSE           
##  6 Abraxas    FALSE   FALSE            FALSE            TRUE            
##  7 Absorbing~ FALSE   FALSE            FALSE            FALSE           
##  8 Adam Monr~ FALSE   TRUE             FALSE            FALSE           
##  9 Adam Stra~ FALSE   FALSE            FALSE            FALSE           
## 10 Agent Bob  FALSE   FALSE            FALSE            FALSE           
## # ... with 657 more rows, and 163 more variables: cold_resistance <lgl>,
## #   durability <lgl>, stealth <lgl>, energy_absorption <lgl>, flight <lgl>,
## #   danger_sense <lgl>, underwater_breathing <lgl>, marksmanship <lgl>,
## #   weapons_master <lgl>, power_augmentation <lgl>, animal_attributes <lgl>,
## #   longevity <lgl>, intelligence <lgl>, super_strength <lgl>,
## #   cryokinesis <lgl>, telepathy <lgl>, energy_armor <lgl>,
## #   energy_blasts <lgl>, duplication <lgl>, size_changing <lgl>,
## #   density_control <lgl>, stamina <lgl>, astral_travel <lgl>,
## #   audio_control <lgl>, dexterity <lgl>, omnitrix <lgl>, super_speed <lgl>,
…
14. How many superheros have a combination of accelerated healing, durability, and super strength?

```r
filter(superhero_powers2, accelerated_healing == "TRUE", durability == "TRUE", super_strength=="TRUE")
```

```
## # A tibble: 97 x 168
##    hero_names agility accelerated_hea~ lantern_power_r~ dimensional_awa~
##    <chr>      <lgl>   <lgl>            <lgl>            <lgl>           
##  1 A-Bomb     FALSE   TRUE             FALSE            FALSE           
##  2 Abe Sapien TRUE    TRUE             FALSE            FALSE           
##  3 Angel      TRUE    TRUE             FALSE            FALSE           
##  4 Anti-Moni~ FALSE   TRUE             FALSE            TRUE            
##  5 Anti-Venom FALSE   TRUE             FALSE            FALSE           
##  6 Aquaman    TRUE    TRUE             FALSE            FALSE           
##  7 Arachne    TRUE    TRUE             FALSE            FALSE           
##  8 Archangel  TRUE    TRUE             FALSE            FALSE           
##  9 Ardina     TRUE    TRUE             FALSE            FALSE           
## 10 Ares       TRUE    TRUE             FALSE            FALSE           
## # ... with 87 more rows, and 163 more variables: cold_resistance <lgl>,
## #   durability <lgl>, stealth <lgl>, energy_absorption <lgl>, flight <lgl>,
## #   danger_sense <lgl>, underwater_breathing <lgl>, marksmanship <lgl>,
## #   weapons_master <lgl>, power_augmentation <lgl>, animal_attributes <lgl>,
## #   longevity <lgl>, intelligence <lgl>, super_strength <lgl>,
## #   cryokinesis <lgl>, telepathy <lgl>, energy_armor <lgl>,
## #   energy_blasts <lgl>, duplication <lgl>, size_changing <lgl>,
## #   density_control <lgl>, stamina <lgl>, astral_travel <lgl>,
## #   audio_control <lgl>, dexterity <lgl>, omnitrix <lgl>, super_speed <lgl>,
…
## `kinesis`
15. We are only interested in the superheros that do some kind of "kinesis". How would we isolate them from the `superhero_powers` data?

```r
select(superhero_powers2,hero_names, contains("kinesis")) 
```

```
## # A tibble: 667 x 10
##    hero_names cryokinesis electrokinesis telekinesis hyperkinesis hypnokinesis
##    <chr>      <lgl>       <lgl>          <lgl>       <lgl>        <lgl>       
##  1 3-D Man    FALSE       FALSE          FALSE       FALSE        FALSE       
##  2 A-Bomb     FALSE       FALSE          FALSE       FALSE        FALSE       
##  3 Abe Sapien FALSE       FALSE          FALSE       FALSE        FALSE       
##  4 Abin Sur   FALSE       FALSE          FALSE       FALSE        FALSE       
##  5 Abominati~ FALSE       FALSE          FALSE       FALSE        FALSE       
##  6 Abraxas    FALSE       FALSE          FALSE       FALSE        FALSE       
##  7 Absorbing~ FALSE       FALSE          FALSE       FALSE        FALSE       
##  8 Adam Monr~ FALSE       FALSE          FALSE       FALSE        FALSE       
##  9 Adam Stra~ FALSE       FALSE          FALSE       FALSE        FALSE       
## 10 Agent Bob  FALSE       FALSE          FALSE       FALSE        FALSE       
## # ... with 657 more rows, and 4 more variables: thirstokinesis <lgl>,
## #   biokinesis <lgl>, terrakinesis <lgl>, vitakinesis <lgl>
```
…
