…
4. Refocus the data only to include only: country, isscaap_taxonomic_group, asfis_species_name, asfis_species_number, year, catch.

```r
fisheries_tidy %>% 
  select(country,isscaap_taxonomic_group,asfis_species_name, asfis_species_number, year, catch)
```

```
## # A tibble: 376,771 x 6
##    country isscaap_taxonomic_g~ asfis_species_na~ asfis_species_num~  year catch
##    <fct>   <chr>                <chr>             <fct>              <dbl> <dbl>
##  1 Albania Sharks, rays, chima~ Squatinidae       10903XXXXX          1995    NA
##  2 Albania Sharks, rays, chima~ Squatinidae       10903XXXXX          1996    53
##  3 Albania Sharks, rays, chima~ Squatinidae       10903XXXXX          1997    20
##  4 Albania Sharks, rays, chima~ Squatinidae       10903XXXXX          1998    31
##  5 Albania Sharks, rays, chima~ Squatinidae       10903XXXXX          1999    30
##  6 Albania Sharks, rays, chima~ Squatinidae       10903XXXXX          2000    30
##  7 Albania Sharks, rays, chima~ Squatinidae       10903XXXXX          2001    16
##  8 Albania Sharks, rays, chima~ Squatinidae       10903XXXXX          2002    79
##  9 Albania Sharks, rays, chima~ Squatinidae       10903XXXXX          2003     1
## 10 Albania Sharks, rays, chima~ Squatinidae       10903XXXXX          2004     4
## # ... with 376,761 more rows
```
…
6. Which country had the largest overall catch in the year 2000?
China 

```r
fisheries_tidy %>% 
  select(country,year,catch) %>% 
  filter(year=="2000") %>% 
  arrange(desc(catch))
```

```
## # A tibble: 8,793 x 3
##    country                   year catch
##    <fct>                    <dbl> <dbl>
##  1 China                     2000  9068
##  2 Peru                      2000  5717
##  3 Russian Federation        2000  5065
##  4 Viet Nam                  2000  4945
##  5 Chile                     2000  4299
##  6 China                     2000  3288
##  7 China                     2000  2782
##  8 United States of America  2000  2438
##  9 China                     2000  1234
## 10 Philippines               2000   999
## # ... with 8,783 more rows
```

7. Which country caught the most sardines (_Sardina pilchardus_) between the years 1990-2000?
Morocco

```r
fisheries_tidy %>% 
  count(country,asfis_species_name, year, catch) %>% 
  filter(between(year, 1990,2000)) %>% 
  filter(asfis_species_name=="Sardina pilchardus") %>% 
  arrange(desc(catch))
```

```
## # A tibble: 329 x 5
##    country            asfis_species_name  year catch     n
##    <fct>              <chr>              <dbl> <dbl> <int>
##  1 Morocco            Sardina pilchardus  1994   947     1
##  2 Morocco            Sardina pilchardus  1996   925     1
##  3 Spain              Sardina pilchardus  1996   912     1
##  4 Morocco            Sardina pilchardus  2000   859     1
##  5 Morocco            Sardina pilchardus  1990   845     1
##  6 Morocco            Sardina pilchardus  1991   827     1
##  7 Morocco            Sardina pilchardus  1998   723     1
##  8 Morocco            Sardina pilchardus  1993   710     1
##  9 Russian Federation Sardina pilchardus  1992   627     1
## 10 Russian Federation Sardina pilchardus  1991   579     1
## # ... with 319 more rows
```

8. Which five countries caught the most cephalopods between 2008-2012?
India, Algeria, China, Mauritania, and France

```r
fisheries_tidy %>% 
  select(country,asfis_species_name, year, catch) %>% 
  filter(between(year, 2008,2012)) %>% 
  filter(asfis_species_name=="Cephalopoda") %>% 
  arrange(desc(catch))
```

```
## # A tibble: 80 x 4
##    country asfis_species_name  year catch
##    <fct>   <chr>              <dbl> <dbl>
##  1 India   Cephalopoda         2011    94
##  2 India   Cephalopoda         2010    93
##  3 India   Cephalopoda         2012    88
##  4 China   Cephalopoda         2008    86
##  5 China   Cephalopoda         2010    74
##  6 Italy   Cephalopoda         2012    66
##  7 India   Cephalopoda         2009    62
##  8 India   Cephalopoda         2009    61
##  9 India   Cephalopoda         2010    60
## 10 Spain   Cephalopoda         2008    57
## # ... with 70 more rows
```
…
```r
species0812<- fisheries_tidy %>% 
  select(asfis_species_name, year, catch) %>% 
  filter(between(year, 2008, 2012)) %>% 
  filter(asfis_species_name != "Osteichthyes") %>% 
  arrange(desc(catch))
```

```r
species0812 %>% 
  count(asfis_species_name, sort = T)
```

```
## # A tibble: 1,471 x 2
##    asfis_species_name     n
##    <chr>              <int>
##  1 Thunnus albacares   1006
##  2 Thunnus obesus       923
##  3 Xiphias gladius      837
##  4 Elasmobranchii       761
##  5 Katsuwonus pelamis   761
##  6 Thunnus alalunga     755
##  7 Makaira nigricans    584
##  8 Mugilidae            482
##  9 Rajiformes           427
## 10 Scombroidei          417
## # ... with 1,461 more rows
```
</div>

10. Use the data to do at least one analysis of your choice.
Country that made the most catches in 2005
China

```r
fisheries_tidy %>% 
  select(country, year, catch) %>% 
  filter(year==2005) %>% 
  arrange(desc(catch))
```

```
## # A tibble: 9,870 x 3
##    country                   year catch
##    <fct>                    <dbl> <dbl>
##  1 China                     2005  8809
##  2 Chile                     2005  8797
##  3 United States of America  2005  7359
##  4 Myanmar                   2005  6330
##  5 Peru                      2005  5461
##  6 Viet Nam                  2005  3957
##  7 Taiwan Province of China  2005   992
##  8 South Africa              2005   987
##  9 Senegal                   2005   975
## 10 Argentina                 2005   971
## # ... with 9,860 more rows
```
…
